{
  "artists": {
    "href": "https://api.spotify.com/v1/search?offset=0&limit=1&query=Drake&type=artist",
    "limit": 1,
    "next": "https://api.spotify.com/v1/search?offset=1&limit=1&query=Drake&type=artist",
    "offset": 0,
    "previous": null,
    "total": 100,
    "items": [
      {
        "external_urls": {
          "spotify": "https://open.spotify.com/artist/3TVXtAsR1Inumwj472S9r4"
        },
        "href": "https://api.spotify.com/v1/artists/3TVXtAsR1Inumwj472S9r4",
        "id": "3TVXtAsR1Inumwj472S9r4",
        "images": [
          {
            "url": "https://i.scdn.co/image/ab6761610000e5eb4293385d324db8558179afd9",
            "height": 640,
            "width": 640
          },
          {
            "url": "https://i.scdn.co/image/ab676161000051744293385d324db8558179afd9",
            "height": 320,
            "width": 320
          },
          {
            "url": "https://i.scdn.co/image/ab6761610000f1784293385d324db8558179afd9",
            "height": 160,
            "width": 160
          }
        ],
        "name": "Drake",
        "type": "artist",
        "uri": "spotify:artist:3TVXtAsR1Inumwj472S9r4"
      }
    ]
  }
}